{"total": 14640, "offset": 0, "next": 20, "data": [{"paperId": "17e350394d2dc9206cd919e43435ea0d3706fe61", "title": "Deposition of sulphur and nitrogen in Europe 1900\u20132050. Model calculations and comparison to historical observations"}, {"paperId": "bd97e1b34db506709d56634f8758353976d27843", "title": "Applying WRF-CMAQ models for assessment of sulphur and nitrogen deposition in Bulgaria for the years 2016 and 2017"}, {"paperId": "9cdace2b416b9f14f2745642073dfaff53b01c97", "title": "Sulphur and Nitrogen Fertilization as a Potential Means of Agronomic Biofortification to Improve the Content and Uptake of Microelements in Spring Wheat Grain DM"}, {"paperId": "8831aea2c152968b5b2abfe6bdea91848967e047", "title": "Sulphur and nitrogen dual-doped mesoporous carbon hybrid coupling with graphite coated cobalt and cobalt sulfide nanoparticles: Rational synthesis and advanced multifunctional electrochemical properties."}, {"paperId": "1fea1b43b0014f468021a5164283f474e3746eb4", "title": "Assessing the Potential of Polymer Coated Urea and Sulphur Fertilization on Growth, Physiology, Yield, Oil Contents and Nitrogen Use Efficiency of Sunflower Crop under Arid Environment"}, {"paperId": "7fb503339e28e31e843edd019dd1fb3b4edc7bfa", "title": "The effect of sulphur and nitrogen fertilization on grain yield and technological quality of spring wheat"}, {"paperId": "90183f33c28358d3f73b3c51491f21a8220489b4", "title": "Predicting sulphur and nitrogen deposition using a simple statistical method"}, {"paperId": "b6b6d178b021b9322eb6e47d6939d698b2191736", "title": "Doping carbons beyond nitrogen: an overview of advanced heteroatom doped carbons with boron, sulphur and phosphorus for energy applications"}, {"paperId": "a36eb79aaa8bd15ea00ac33886ed1f5c8c648d6f", "title": "Trend analysis and first time observations of sulphur dioxide and nitrogen dioxide in South Africa using TROPOMI/Sentinel-5 P data"}, {"paperId": "eb94a70bb2d090d735cb1009e0bc97389f489dfd", "title": "Effect of Nitrogen and Sulphur in the Production of the Mustard Crop [Brassica juncea (L.)]"}, {"paperId": "8054651859d4e0cf0ec3c25aa034d0f8064093ce", "title": "Trends in atmospheric deposition fluxes of sulphur and nitrogen in Czech forests."}, {"paperId": "822c25fde3be16d6b6168a2b2ad0043c13171c65", "title": "Grassland species show similar strategies for sulphur and nitrogen acquisition"}, {"paperId": "65914ef90ece4cdfcb61cccafb0263925b9a057c", "title": "Luminescent properties of milk carbon dots and their sulphur and nitrogen doped analogues"}, {"paperId": "95a4d324cb0f1ae9d58fd2e337350513d4706c4a", "title": "Sulphur and Nitrogen Fertilization of Spring Wheat"}, {"paperId": "e0cd75d8cc8b81616f1e6b8d8eb54d013a4053b7", "title": "Simulations of future sulphur and nitrogen deposition over Europe using meteorological data from three regional climate projections"}, {"paperId": "b6ebc9f0e9970999b42098839c5abd2c78c7f5dc", "title": "Sulphur-coated Urea as a Source of Sulphur and an Enhanced Efficiency of Nitrogen Fertilizer for Spring Wheat"}, {"paperId": "b2e0aac5b8f32dc9f4118585f07aef1adfaf8dcf", "title": "Impact and mechanism of sulphur-deficiency on modern wheat farming nitrogen-related sustainability and gliadin content"}, {"paperId": "8729f7fbfbaf130718964696b998cfa89dca4f6c", "title": "Synthesis, structure, and spectroscopic properties of copper(II) compounds containing nitrogen\u2013sulphur donor ligands; the crystal and molecular structure of aqua[1,7-bis(N-methylbenzimidazol-2\u2032-yl)-2,6-dithiaheptane]copper(II) perchlorate"}, {"paperId": "90d47e28585e34c4d94c29ae818b6ff1755a2811", "title": "Using hyperspectral remote sensing techniques to monitor nitrogen, phosphorus, sulphur and potassium in wheat (Triticum aestivum L.)"}, {"paperId": "cdbd43fff661e0fe6e376603df913ef9e0ec5bba", "title": "Biological nitrogen removal from wastewater using sulphur-driven autotrophic denitrification"}]}
